Ledger search==> StartTime:02-04-2020 11:00:39,EndTime:02-04-2020 11:02:58,Total Time(Sec):138.317
Ledger search==> StartTime:02-04-2020 11:03:30,EndTime:02-04-2020 11:11:00,Total Time(Sec):450.514
Ledger search==> StartTime:02-04-2020 11:19:27,EndTime:02-04-2020 11:19:39,Total Time(Sec):11.925
Ledger search==> StartTime:02-04-2020 11:20:57,EndTime:02-04-2020 11:22:07,Total Time(Sec):70.332
Ledger search==> StartTime:02-04-2020 11:22:13,EndTime:02-04-2020 11:22:47,Total Time(Sec):34.35
Ledger search==> StartTime:02-04-2020 11:29:41,EndTime:02-04-2020 11:45:26,Total Time(Sec):945.206
Ledger search==> StartTime:02-04-2020 12:08:21,EndTime:02-04-2020 12:11:50,Total Time(Sec):209.791
Ledger search==> StartTime:02-04-2020 12:15:42,EndTime:02-04-2020 12:16:15,Total Time(Sec):32.886
Ledger search==> StartTime:02-04-2020 12:16:53,EndTime:02-04-2020 12:17:42,Total Time(Sec):49.165
Ledger search==> StartTime:02-04-2020 12:19:07,EndTime:02-04-2020 12:19:27,Total Time(Sec):20.247
Ledger search==> StartTime:02-04-2020 12:19:50,EndTime:02-04-2020 12:20:02,Total Time(Sec):12.529
Ledger search==> StartTime:02-04-2020 12:23:25,EndTime:02-04-2020 12:23:39,Total Time(Sec):14.286
Ledger search==> StartTime:02-04-2020 12:23:53,EndTime:02-04-2020 12:24:05,Total Time(Sec):12.218
Ledger search==> StartTime:02-04-2020 12:28:47,EndTime:02-04-2020 12:28:59,Total Time(Sec):12.495
Ledger search==> StartTime:02-04-2020 12:29:08,EndTime:02-04-2020 12:29:19,Total Time(Sec):11.091
Ledger search==> StartTime:02-04-2020 12:29:26,EndTime:02-04-2020 12:29:43,Total Time(Sec):17.514
Ledger search==> StartTime:02-04-2020 12:43:26,EndTime:02-04-2020 12:43:39,Total Time(Sec):12.653
Ledger search==> StartTime:02-04-2020 12:43:48,EndTime:02-04-2020 12:44:01,Total Time(Sec):12.84
Ledger search==> StartTime:02-04-2020 12:44:08,EndTime:02-04-2020 12:44:19,Total Time(Sec):10.428
