Delete==> StartTime:20-05-2020 12:09:33,EndTime:20-05-2020 12:09:38,Total Time(Sec):5.076
Ledger search==> StartTime:20-05-2020 12:37:11,EndTime:20-05-2020 12:37:28,Total Time(Sec):16.917
validate register/update/temporary==> StartTime:20-05-2020 13:54:13,EndTime:20-05-2020 13:54:14,Total Time(Sec):1.573
validate register/update/temporary==> StartTime:20-05-2020 13:54:51,EndTime:20-05-2020 13:54:53,Total Time(Sec):1.364
validate register/update/temporary==> StartTime:20-05-2020 13:55:06,EndTime:20-05-2020 13:55:07,Total Time(Sec):1.359
validate register/update/temporary==> StartTime:20-05-2020 13:55:19,EndTime:20-05-2020 13:55:21,Total Time(Sec):1.361
validate register/update/temporary==> StartTime:20-05-2020 13:55:33,EndTime:20-05-2020 13:55:35,Total Time(Sec):1.319
validate register/update/temporary==> StartTime:20-05-2020 13:55:47,EndTime:20-05-2020 13:55:49,Total Time(Sec):1.671
validate register/update/temporary==> StartTime:20-05-2020 13:56:02,EndTime:20-05-2020 13:56:03,Total Time(Sec):1.504
validate register/update/temporary==> StartTime:20-05-2020 13:56:15,EndTime:20-05-2020 13:56:17,Total Time(Sec):1.193
validate register/update/temporary==> StartTime:20-05-2020 13:56:28,EndTime:20-05-2020 13:56:29,Total Time(Sec):1.214
validate register/update/temporary==> StartTime:20-05-2020 13:56:40,EndTime:20-05-2020 13:56:42,Total Time(Sec):1.364
validate register/update/temporary==> StartTime:20-05-2020 13:56:53,EndTime:20-05-2020 13:56:55,Total Time(Sec):2.071
validate register/update/temporary==> StartTime:20-05-2020 13:57:08,EndTime:20-05-2020 13:57:09,Total Time(Sec):1.591
validate register/update/temporary==> StartTime:20-05-2020 13:57:27,EndTime:20-05-2020 13:57:28,Total Time(Sec):1.406
validate register/update/temporary==> StartTime:20-05-2020 13:57:41,EndTime:20-05-2020 13:57:43,Total Time(Sec):1.481
validate register/update/temporary==> StartTime:20-05-2020 13:57:55,EndTime:20-05-2020 13:57:56,Total Time(Sec):1.424
validate register/update/temporary==> StartTime:20-05-2020 13:58:11,EndTime:20-05-2020 13:58:13,Total Time(Sec):1.419
validate register/update/temporary==> StartTime:20-05-2020 13:58:26,EndTime:20-05-2020 13:58:27,Total Time(Sec):1.413
validate register/update/temporary==> StartTime:20-05-2020 13:58:39,EndTime:20-05-2020 13:58:41,Total Time(Sec):1.671
validate register/update/temporary==> StartTime:20-05-2020 13:58:53,EndTime:20-05-2020 13:58:55,Total Time(Sec):1.278
validate register/update/temporary==> StartTime:20-05-2020 13:59:07,EndTime:20-05-2020 13:59:09,Total Time(Sec):1.696
validate register/update/temporary==> StartTime:20-05-2020 14:56:43,EndTime:20-05-2020 14:56:44,Total Time(Sec):1.695
validate register/update/temporary==> StartTime:20-05-2020 14:56:58,EndTime:20-05-2020 14:56:59,Total Time(Sec):1.484
validate register/update/temporary==> StartTime:20-05-2020 14:57:13,EndTime:20-05-2020 14:57:15,Total Time(Sec):1.803
validate register/update/temporary==> StartTime:20-05-2020 14:57:29,EndTime:20-05-2020 14:57:31,Total Time(Sec):1.402
validate register/update/temporary==> StartTime:20-05-2020 14:57:45,EndTime:20-05-2020 14:57:46,Total Time(Sec):1.258
validate register/update/temporary==> StartTime:20-05-2020 14:58:11,EndTime:20-05-2020 14:58:12,Total Time(Sec):1.192
validate register/update/temporary==> StartTime:20-05-2020 14:58:26,EndTime:20-05-2020 14:58:27,Total Time(Sec):1.536
validate register/update/temporary==> StartTime:20-05-2020 14:58:40,EndTime:20-05-2020 14:58:42,Total Time(Sec):1.245
validate register/update/temporary==> StartTime:20-05-2020 14:58:53,EndTime:20-05-2020 14:58:54,Total Time(Sec):1.278
validate register/update/temporary==> StartTime:20-05-2020 14:59:09,EndTime:20-05-2020 14:59:11,Total Time(Sec):1.283
validate register/update/temporary==> StartTime:20-05-2020 14:59:25,EndTime:20-05-2020 14:59:27,Total Time(Sec):1.346
validate register/update/temporary==> StartTime:20-05-2020 14:59:49,EndTime:20-05-2020 14:59:51,Total Time(Sec):1.114
validate register/update/temporary==> StartTime:20-05-2020 15:00:02,EndTime:20-05-2020 15:00:03,Total Time(Sec):1.121
validate register/update/temporary==> StartTime:20-05-2020 15:00:16,EndTime:20-05-2020 15:00:17,Total Time(Sec):1.153
validate register/update/temporary==> StartTime:20-05-2020 15:00:30,EndTime:20-05-2020 15:00:31,Total Time(Sec):1.292
validate register/update/temporary==> StartTime:20-05-2020 15:00:44,EndTime:20-05-2020 15:00:46,Total Time(Sec):1.232
validate register/update/temporary==> StartTime:20-05-2020 15:00:59,EndTime:20-05-2020 15:01:00,Total Time(Sec):1.158
validate register/update/temporary==> StartTime:20-05-2020 15:01:17,EndTime:20-05-2020 15:01:18,Total Time(Sec):1.105
validate register/update/temporary==> StartTime:20-05-2020 15:01:29,EndTime:20-05-2020 15:01:30,Total Time(Sec):1.178
validate register/update/temporary==> StartTime:20-05-2020 15:01:43,EndTime:20-05-2020 15:01:44,Total Time(Sec):1.18
validate register/update/temporary==> StartTime:20-05-2020 15:01:57,EndTime:20-05-2020 15:01:58,Total Time(Sec):1.131
validate register/update/temporary==> StartTime:20-05-2020 15:02:10,EndTime:20-05-2020 15:02:12,Total Time(Sec):1.288
validate register/update/temporary==> StartTime:20-05-2020 15:02:24,EndTime:20-05-2020 15:02:25,Total Time(Sec):1.135
validate register/update/temporary==> StartTime:20-05-2020 15:03:24,EndTime:20-05-2020 15:03:26,Total Time(Sec):1.193
validate register/update/temporary==> StartTime:20-05-2020 15:03:37,EndTime:20-05-2020 15:03:38,Total Time(Sec):1.323
validate register/update/temporary==> StartTime:20-05-2020 15:03:56,EndTime:20-05-2020 15:03:57,Total Time(Sec):1.374
validate register/update/temporary==> StartTime:20-05-2020 15:04:10,EndTime:20-05-2020 15:04:12,Total Time(Sec):1.196
validate register/update/temporary==> StartTime:20-05-2020 15:04:24,EndTime:20-05-2020 15:04:25,Total Time(Sec):1.454
validate register/update/temporary==> StartTime:20-05-2020 15:05:26,EndTime:20-05-2020 15:05:27,Total Time(Sec):1.336
validate register/update/temporary==> StartTime:20-05-2020 15:05:41,EndTime:20-05-2020 15:05:45,Total Time(Sec):4.855
validate register/update/temporary==> StartTime:20-05-2020 15:05:57,EndTime:20-05-2020 15:06:07,Total Time(Sec):9.633
validate register/update/temporary==> StartTime:20-05-2020 15:06:20,EndTime:20-05-2020 15:06:21,Total Time(Sec):1.177
validate register/update/temporary==> StartTime:20-05-2020 15:06:33,EndTime:20-05-2020 15:06:34,Total Time(Sec):1.136
validate register/update/temporary==> StartTime:20-05-2020 15:06:47,EndTime:20-05-2020 15:06:51,Total Time(Sec):4.457
validate register/update/temporary==> StartTime:20-05-2020 15:07:03,EndTime:20-05-2020 15:07:17,Total Time(Sec):14.014
validate register/update/temporary==> StartTime:20-05-2020 15:07:31,EndTime:20-05-2020 15:07:32,Total Time(Sec):1.234
validate register/update/temporary==> StartTime:20-05-2020 15:07:44,EndTime:20-05-2020 15:07:46,Total Time(Sec):1.229
validate register/update/temporary==> StartTime:20-05-2020 15:11:41,EndTime:20-05-2020 15:11:42,Total Time(Sec):1.309
validate register/update/temporary==> StartTime:20-05-2020 15:11:56,EndTime:20-05-2020 15:12:01,Total Time(Sec):4.914
validate register/update/temporary==> StartTime:20-05-2020 15:12:15,EndTime:20-05-2020 15:12:19,Total Time(Sec):4.261
validate register/update/temporary==> StartTime:20-05-2020 15:12:33,EndTime:20-05-2020 15:12:35,Total Time(Sec):1.861
validate register/update/temporary==> StartTime:20-05-2020 15:13:46,EndTime:20-05-2020 15:13:47,Total Time(Sec):1.193
validate register/update/temporary==> StartTime:20-05-2020 15:14:28,EndTime:20-05-2020 15:14:30,Total Time(Sec):1.208
validate register/update/temporary==> StartTime:20-05-2020 15:14:43,EndTime:20-05-2020 15:14:45,Total Time(Sec):1.602
validate register/update/temporary==> StartTime:20-05-2020 15:15:00,EndTime:20-05-2020 15:15:01,Total Time(Sec):1.163
validate register/update/temporary==> StartTime:20-05-2020 15:15:15,EndTime:20-05-2020 15:15:16,Total Time(Sec):1.177
validate register/update/temporary==> StartTime:20-05-2020 15:15:28,EndTime:20-05-2020 15:15:29,Total Time(Sec):1.144
validate register/update/temporary==> StartTime:20-05-2020 15:15:43,EndTime:20-05-2020 15:15:44,Total Time(Sec):1.083
validate register/update/temporary==> StartTime:20-05-2020 15:15:58,EndTime:20-05-2020 15:16:00,Total Time(Sec):1.215
validate register/update/temporary==> StartTime:20-05-2020 15:16:39,EndTime:20-05-2020 15:16:40,Total Time(Sec):1.342
validate register/update/temporary==> StartTime:20-05-2020 15:17:28,EndTime:20-05-2020 15:17:30,Total Time(Sec):1.311
validate register/update/temporary==> StartTime:20-05-2020 15:17:48,EndTime:20-05-2020 15:17:49,Total Time(Sec):1.197
validate register/update/temporary==> StartTime:20-05-2020 15:18:02,EndTime:20-05-2020 15:18:03,Total Time(Sec):1.46
validate register/update/temporary==> StartTime:20-05-2020 15:18:22,EndTime:20-05-2020 15:18:23,Total Time(Sec):1.151
validate register/update/temporary==> StartTime:20-05-2020 15:18:38,EndTime:20-05-2020 15:18:39,Total Time(Sec):1.198
validate register/update/temporary==> StartTime:20-05-2020 15:18:54,EndTime:20-05-2020 15:18:55,Total Time(Sec):1.13
validate register/update/temporary==> StartTime:20-05-2020 15:19:48,EndTime:20-05-2020 15:19:49,Total Time(Sec):1.527
validate register/update/temporary==> StartTime:20-05-2020 15:20:03,EndTime:20-05-2020 15:20:05,Total Time(Sec):1.287
validate register/update/temporary==> StartTime:20-05-2020 15:20:20,EndTime:20-05-2020 15:20:22,Total Time(Sec):1.461
validate register/update/temporary==> StartTime:20-05-2020 15:20:36,EndTime:20-05-2020 15:20:37,Total Time(Sec):1.17
validate register/update/temporary==> StartTime:20-05-2020 15:20:52,EndTime:20-05-2020 15:20:53,Total Time(Sec):1.238
validate register/update/temporary==> StartTime:20-05-2020 15:21:08,EndTime:20-05-2020 15:21:10,Total Time(Sec):1.841
validate register/update/temporary==> StartTime:20-05-2020 15:21:26,EndTime:20-05-2020 15:21:27,Total Time(Sec):1.43
validate register/update/temporary==> StartTime:20-05-2020 15:21:49,EndTime:20-05-2020 15:21:50,Total Time(Sec):1.208
validate register/update/temporary==> StartTime:20-05-2020 15:22:50,EndTime:20-05-2020 15:22:52,Total Time(Sec):1.264
validate register/update/temporary==> StartTime:20-05-2020 15:23:07,EndTime:20-05-2020 15:23:08,Total Time(Sec):1.282
validate register/update/temporary==> StartTime:20-05-2020 15:23:23,EndTime:20-05-2020 15:23:24,Total Time(Sec):1.367
validate register/update/temporary==> StartTime:20-05-2020 15:23:41,EndTime:20-05-2020 15:23:43,Total Time(Sec):1.603
validate register/update/temporary==> StartTime:20-05-2020 15:23:56,EndTime:20-05-2020 15:23:58,Total Time(Sec):1.248
validate register/update/temporary==> StartTime:20-05-2020 15:24:14,EndTime:20-05-2020 15:24:15,Total Time(Sec):1.51
validate register/update/temporary==> StartTime:20-05-2020 15:24:28,EndTime:20-05-2020 15:24:29,Total Time(Sec):1.397
validate register/update/temporary==> StartTime:20-05-2020 15:25:02,EndTime:20-05-2020 15:25:04,Total Time(Sec):1.319
validate register/update/temporary==> StartTime:20-05-2020 15:26:03,EndTime:20-05-2020 15:26:04,Total Time(Sec):1.33
validate register/update/temporary==> StartTime:20-05-2020 15:26:18,EndTime:20-05-2020 15:26:20,Total Time(Sec):1.314
validate register/update/temporary==> StartTime:20-05-2020 15:26:32,EndTime:20-05-2020 15:26:34,Total Time(Sec):1.337
validate register/update/temporary==> StartTime:20-05-2020 15:26:46,EndTime:20-05-2020 15:26:49,Total Time(Sec):2.253
validate register/update/temporary==> StartTime:20-05-2020 15:27:03,EndTime:20-05-2020 15:27:04,Total Time(Sec):1.527
validate register/update/temporary==> StartTime:20-05-2020 15:27:18,EndTime:20-05-2020 15:27:19,Total Time(Sec):1.434
validate register/update/temporary==> StartTime:20-05-2020 15:28:13,EndTime:20-05-2020 15:28:15,Total Time(Sec):1.683
validate register/update/temporary==> StartTime:20-05-2020 15:28:29,EndTime:20-05-2020 15:28:31,Total Time(Sec):1.486
validate register/update/temporary==> StartTime:20-05-2020 15:28:49,EndTime:20-05-2020 15:28:51,Total Time(Sec):1.451
validate register/update/temporary==> StartTime:20-05-2020 15:29:07,EndTime:20-05-2020 15:29:09,Total Time(Sec):1.647
validate register/update/temporary==> StartTime:20-05-2020 15:29:23,EndTime:20-05-2020 15:29:25,Total Time(Sec):1.464
validate register/update/temporary==> StartTime:20-05-2020 17:13:47,EndTime:20-05-2020 17:13:48,Total Time(Sec):1.223
